…
pred_dat <- read_csv(csv_link) %>% 
  clean_names() %>% 
  mutate(close = ifelse(election_results <= 55 & election_results >= 45, "Close", "Safe")) %>% 
  left_join(tibble(state = state.name, abbr =state.abb)) %>% 
  mutate(distr_abbr = paste0(abbr, district))
```


``` r
pred_dat
```

    ## # A tibble: 435 x 14
    ##    state district democratic_cand~ republican_cand~ election_results
    ##    <chr>    <int> <chr>            <chr>                       <dbl>
    ##  1 Alab~        1 Kennedy          Byrne                        36.7
    ##  2 Alab~        2 Isner            Roby                         38.5
    ##  3 Alab~        3 Hagan            Rogers                       36.2
    ##  4 Alab~        4 Auman            Aderholt                     20.1
    ##  5 Alab~        5 Joffrion         Brooks                       38.9
    ##  6 Alab~        6 Kline            Palmer                       30.7
    ##  7 Alab~        7 Sewell           -                           100  
    ##  8 Alas~        1 Glavin           Young                        46  
    ##  9 Ariz~        1 O'Halleran       Rogers                       53.8
    ## 10 Ariz~        2 Kirkpatrick      Peterson                     54.4
    ## # ... with 425 more rows, and 9 more variables: predicted_lite <dbl>,
    ## #   predicted_classic <dbl>, predicted_deluxe <dbl>,
    ## #   predicted_probability_deluxe <dbl>, correct_deluxe <int>,
    ## #   democratic_win <int>, close <chr>, abbr <chr>, distr_abbr <chr>
…
