GT Parser Report
…
test_data %>% 
  select(OMID, Q1Pre, Q2Pre, Q1Post, Q2Post, Q1FollowUp, Q2FollowUp) %>% 
  gather(key, value, -OMID) %>% 
  mutate(value = ifelse(str_detect(value, "asked") | nchar(value) == 0, NA, as.numeric(value))) %>%
  drop_na(value) %>% 
  assertr::verify(value >= 0)%>% 
  assertr::verify(value <= 100)

# A tibble: 12,618 x 3
            OMID key   value
           <dbl> <chr> <dbl>
 1 1936930941592 Q1Pre    91
 2 4054492109047 Q1Pre    40
 3 6645463170469 Q1Pre    56
 4 4314836903023 Q1Pre    40
 5 7932761548831 Q1Pre    72
 6 7650526612875 Q1Pre    80
 7 2350726429569 Q1Pre    30
 8 6444338050719 Q1Pre    20
 9 3851063289237 Q1Pre    55
10  723328486455 Q1Pre    60
# ... with 12,608 more rows
…
test_data %>% 
  select(OMID, Q3Pre:Q11Pre, Q3Post:Q11Post, 
         C1Pre:C3Pre, C1Post:C3Post, 
         C1FollowUp:C3FollowUp) %>% 
  gather(key, value, -OMID)  %>% 
  mutate(value = ifelse(str_detect(value, "asked") | nchar(value) == 0, NA, as.numeric(value))) %>%
  drop_na(value) %>% 
  assertr::verify(value >= 0)%>% 
  assertr::verify(value <= 6)

# A tibble: 65,141 x 3
            OMID key   value
           <dbl> <chr> <dbl>
 1 1936930941592 Q3Pre     1
 2 4054492109047 Q3Pre     1
 3 6645463170469 Q3Pre     3
 4 4314836903023 Q3Pre     1
 5 7932761548831 Q3Pre     4
 6 7650526612875 Q3Pre     6
 7 2350726429569 Q3Pre     2
 8 6444338050719 Q3Pre     5
 9 3851063289237 Q3Pre     3
10  723328486455 Q3Pre     6
# ... with 65,131 more rows
…
test_data %>% 
  select(OMID, C1Pre:C3Pre, C1Post:C3Post, C1FollowUp:C3FollowUp) %>% 
  gather(key, value, -OMID)  %>% #count(key, value)
  mutate(value = ifelse(str_detect(value, "asked") | nchar(value) == 0, NA, as.numeric(value))) %>%
  drop_na(value) %>% 
  assertr::verify(value >= 0)%>% 
  assertr::verify(value <= 6)

# A tibble: 8,620 x 3
            OMID key   value
           <dbl> <chr> <dbl>
 1 1936930941592 C1Pre     3
 2 4763065949021 C1Pre     5
 3 2843697131304 C1Pre     4
 4  762213502473 C1Pre     6
 5  556969885120 C1Pre     5
 6 3098587347069 C1Pre     5
 7 3567083791376 C1Pre     5
 8 7415097300811 C1Pre     5
 9 6032933859052 C1Pre     4
10 9260451802372 C1Pre     6
# ... with 8,610 more rows

Investigate

test_data %>% 
  select(OMID, C1Pre:C3Pre, C1Post:C3Post, C1FollowUp:C3FollowUp) %>% 
  gather(key, value, -OMID)  %>% #count(key, value)
  mutate(value = ifelse(str_detect(value, "asked") | nchar(value) == 0, NA, as.numeric(value))) %>%
  drop_na(value) %>% 
  count(key, value) %>% 
  arrange(key)

# A tibble: 44 x 3
   key        value     n
   <chr>      <dbl> <int>
 1 C1FollowUp     0     2
 2 C1FollowUp     2     3
 3 C1FollowUp     3     6
 4 C1FollowUp     4     8
 5 C1FollowUp     5    27
 6 C1FollowUp     6    26
 7 C1Post         0     1
 8 C1Pre          0    21
 9 C1Pre          1    22
10 C1Pre          2    76
# ... with 34 more rows
…
Question D5

test_data %>% 
  select(OMID, D5) %>% 
  gather(key, value, -OMID) %>% 
  mutate(value = ifelse(str_detect(value, "asked") | nchar(value) == 0, NA, value)) %>% 
  count(value, sort = T) 

# A tibble: 2,061 x 2
   value                 n
   <chr>             <int>
 1 Prefer not to say  1153
 2 <NA>                764
 3 78363                40
 4 55403                32
 5 83706                28
 6 38655                27
 7 30458                25
 8 36832                22
 9 48823                22
10 85281                21
# ... with 2,051 more rows
…
Question B1

test_data %>% 
  select(OMID, B1Pre, B1Post, B1FollowUp) %>% 
  gather(key, value, -OMID) %>% 
  mutate(value = ifelse(str_detect(value, "asked") | nchar(value) == 0, NA, value)) %>% 
  count(key, value, sort = T) 

# A tibble: 2,016 x 3
   key       value                                                        n
   <chr>     <chr>                                                    <int>
 1 B1Follow~ <NA>                                                      4970
 2 B1Post    <NA>                                                      4258
 3 B1Pre     <NA>                                                      3484
 4 B1Pre     ||, ||, ||, ||, ||, ||                                     151
 5 B1Post    ||, ||, ||, ||, ||, ||                                     113
 6 B1Pre     |N/A|, |N/A|, |N/A|, |N/A|, |N/A|, |N/A|                     3
 7 B1Post    |We experience the same hate from our presidential cand~     2
 8 B1Pre     |Being exposed to the hate that the presidential candid~     2
 9 B1Follow~ [||, ||, ||, ||, ||, ||]                                     1
10 B1Follow~ [|anger|, |apathy|, |dissapointment|, |excitement|, |tr~     1
# ... with 2,006 more rows

Question B2

test_data %>% 
  select(OMID, B2Pre, B2Post, B1FollowUp) %>% 
  gather(key, value, -OMID) %>% 
  mutate(value = ifelse(str_detect(value, "asked") | nchar(value) == 0, NA, value)) %>% 
  count(key, value, sort = T) 

# A tibble: 822 x 3
   key       value                                                        n
   <chr>     <chr>                                                    <int>
 1 B1Follow~ <NA>                                                      4970
 2 B2Post    <NA>                                                      4256
 3 B2Pre     <NA>                                                      3447
 4 B2Pre     (Why Controversial Speakers Need to be Allowed to Speak~    76
 5 B2Pre     (Why College Should be Free for All Americans)              75
 6 B2Pre     (Why Free College Can't Work in America)                    59
 7 B2Pre     (Why We Need More Gun Restrictions)                         49
 8 B2Pre     (Why We Need More Gun Restrictions)(Why College Should ~    46
 9 B2Pre     (Why College Should be Free for All Americans)(Why We N~    34
10 B2Pre     (Blank)                                                     33
# ... with 812 more rows

Question B3

test_data %>% 
  select(OMID, B3Pre, B3Post, B3FollowUp) %>% 
  gather(key, value, -OMID) %>% 
  mutate(value = ifelse(str_detect(value, "asked") | nchar(value) == 0, NA, value)) %>% 
  count(key, value, sort = T) 

# A tibble: 1,570 x 3
   key       value                                                        n
   <chr>     <chr>                                                    <int>
 1 B3Follow~ <NA>                                                      4976
 2 B3Post    <NA>                                                      4445
 3 B3Pre     <NA>                                                      3959
 4 B3Post    <conservative>, <Very: (Unfollow this person)>, <Mild: ~     4
 5 B3Pre     <conservative>, <Very: (Unfollow this person)>, <Extrem~     4
 6 B3Pre     <progressive>, <Very: (Unfollow this person)>, <Mild: (~     4
 7 B3Post    <conservative>, <Extreme: (Unfollow this person)>, <Mil~     3
 8 B3Post    <conservative>, <Mild: (Do nothing) Do nothing: ||>, <E~     3
 9 B3Post    <conservative>, <Mild: (Do nothing) Do nothing: |not wo~     3
10 B3Post    <conservative>, <Mild: (Unfollow this person)>, <Very: ~     3
# ... with 1,560 more rows

Question Date

test_data  %>% 
  # visdat::vis_miss(sort_miss = T, cluster = T)
  select(OMID, DatePre, DatePost, DateFollowUp) %>%
  # mutate_at(vars(DatePre,
  #                DatePost, 
  #                DateFollowUp), tidytemplate::parse_utc_date) %>% 
  filter(is.na(DateFollowUp))

# A tibble: 4,857 x 4
            OMID DatePre    DatePost   DateFollowUp
           <dbl> <date>     <date>     <date>      
 1 1936930941592 2018-12-24 2018-12-24 NA          
 2 7984936287612 NA         NA         NA          
 3 4054492109047 2018-12-24 NA         NA          
 4 6645463170469 2018-12-25 NA         NA          
 5 4314836903023 2018-12-28 NA         NA          
 6 7932761548831 2018-12-26 NA         NA          
 7 7650526612875 2018-12-26 NA         NA          
 8 2350726429569 2018-12-26 NA         NA          
 9 6444338050719 2018-12-26 NA         NA          
10 3851063289237 2018-12-27 NA         NA          
# ... with 4,847 more rows
…
