Visualizing Results of German Elections (2013 and 2017) | favstats - personal blog
…
btw13_data <- btw13 %>% 
  left_join(strukturdaten13) %>% 
  select(-kreis, -wahlkreis_name) %>% 
  left_join(district_names)

tidytemplate::save_it(btw13_data)

btw13_data

## # A tibble: 299 x 15
##    wahlkreis_nr part_of valid perc_afd perc_npd perc_spd perc_linke
##           <int> <chr>   <chr>    <dbl>    <dbl>    <dbl>      <dbl>
##  1            1 1       1606~     4.09    0.578     32.6       5.66
##  2            2 1       1300~     3.84    0.564     29.7       4.41
##  3            3 1       1249~     4.40    0.831     30.0       5.03
##  4            4 1       1479~     4.39    0.577     31.5       4.36
##  5            5 1       1449~     3.71    0.553     34.7       6.91
##  6            6 1       1255~     4.70    0.923     32.7       4.77
##  7            7 1       1773~     4.78    0.744     31.2       5.02
##  8            8 1       1815~     4.97    0.720     30.1       5.02
##  9            9 1       1304~     4.96    0.565     31.5       4.34
## 10           10 1       1814~     5.63    0.759     29.7       4.94
## # ... with 289 more rows, and 8 more variables: perc_fdp <dbl>,
## #   perc_grun <dbl>, perc_cdu_csu <dbl>, wanderung <dbl>,
## #   unemployment <dbl>, sgbii <dbl>, land <chr>, kreis <chr>
…
## Non-numeric variables.. converting
## Non-numeric variables.. converting
## Non-numeric variables.. converting
## Non-numeric variables.. converting
## Non-numeric variables.. converting
## Non-numeric variables.. converting
## Non-numeric variables.. converting

btw17

## # A tibble: 299 x 11
##    wahlkreis_nr kreis part_of valid perc_afd perc_npd perc_spd perc_linke
##           <int> <chr>   <int> <chr>    <dbl>    <dbl>    <dbl>      <dbl>
##  1            1 Flen~       1 1704~     6.84    0.205     23.7       8.21
##  2            2 Nord~       1 1380~     6.54    0.218     22.5       6.22
##  3            3 Stei~       1 1308~     8.54    0.360     22.7       6.67
##  4            4 Rend~       1 1562~     7.41    0.196     22.9       6.37
##  5            5 Kiel        1 1520~     6.91    0.164     23.8      10.2 
##  6            6 Plön~       1 1305~     8.55    0.367     23.8       6.52
##  7            7 Pinn~       1 1863~     8.57    0.239     22.9       7.03
##  8            8 Sege~       1 1919~     8.94    0.241     22.4       6.90
##  9            9 Osth~       1 1372~     8.58    0.219     24.6       6.05
## 10           10 Herz~       1 1919~     9.79    0.256     22.3       6.50
## # ... with 289 more rows, and 3 more variables: perc_fdp <dbl>,
## #   perc_grun <dbl>, perc_cdu_csu <dbl>
…
btw17_data <- btw17 %>% 
  left_join(strukturdaten17) %>% 
  select(-kreis, -wahlkreis_name) %>% 
  left_join(district_names)

tidytemplate::save_it(btw17_data)

btw17_data

## # A tibble: 299 x 15
##    wahlkreis_nr part_of valid perc_afd perc_npd perc_spd perc_linke
##           <int>   <int> <chr>    <dbl>    <dbl>    <dbl>      <dbl>
##  1            1       1 1704~     6.84    0.205     23.7       8.21
##  2            2       1 1380~     6.54    0.218     22.5       6.22
##  3            3       1 1308~     8.54    0.360     22.7       6.67
##  4            4       1 1562~     7.41    0.196     22.9       6.37
##  5            5       1 1520~     6.91    0.164     23.8      10.2 
##  6            6       1 1305~     8.55    0.367     23.8       6.52
##  7            7       1 1863~     8.57    0.239     22.9       7.03
##  8            8       1 1919~     8.94    0.241     22.4       6.90
##  9            9       1 1372~     8.58    0.219     24.6       6.05
## 10           10       1 1919~     9.79    0.256     22.3       6.50
## # ... with 289 more rows, and 8 more variables: perc_fdp <dbl>,
## #   perc_grun <dbl>, perc_cdu_csu <dbl>, unemployment <dbl>,
## #   wanderung <dbl>, sgbii <dbl>, land <chr>, kreis <chr>
…
btw_data <- bind_rows(btw17_data %>% 
  mutate(year = "BTW 2017") %>% 
  mutate(part_of = as.character(part_of)),
  btw13_data %>% 
    mutate(year = "BTW 2013"))  %>% 
  mutate(east_west = case_when(
    str_detect(land, "Berlin|Brand|Nieder|Sachs") ~ "East Germany",
    T ~ "West Germany"
  )) 

tidytemplate::save_it(btw_data)

btw_data

## # A tibble: 598 x 17
##    wahlkreis_nr part_of valid perc_afd perc_npd perc_spd perc_linke
##           <int> <chr>   <chr>    <dbl>    <dbl>    <dbl>      <dbl>
##  1            1 1       1704~     6.84    0.205     23.7       8.21
##  2            2 1       1380~     6.54    0.218     22.5       6.22
##  3            3 1       1308~     8.54    0.360     22.7       6.67
##  4            4 1       1562~     7.41    0.196     22.9       6.37
##  5            5 1       1520~     6.91    0.164     23.8      10.2 
##  6            6 1       1305~     8.55    0.367     23.8       6.52
##  7            7 1       1863~     8.57    0.239     22.9       7.03
##  8            8 1       1919~     8.94    0.241     22.4       6.90
##  9            9 1       1372~     8.58    0.219     24.6       6.05
## 10           10 1       1919~     9.79    0.256     22.3       6.50
## # ... with 588 more rows, and 10 more variables: perc_fdp <dbl>,
## #   perc_grun <dbl>, perc_cdu_csu <dbl>, unemployment <dbl>,
## #   wanderung <dbl>, sgbii <dbl>, land <chr>, kreis <chr>, year <chr>,
## #   east_west <chr>
…
btw_lagged_all

## # A tibble: 598 x 8
##    `AfD 2017` `SPD 2013` `CDU/CSU 2013` `Die Linke 2013` `Die Grünen 201~
##         <dbl>      <dbl>          <dbl>            <dbl>            <dbl>
##  1       6.84       32.6           38.2             5.66             9.79
##  2       6.84       32.6           38.2             5.66             9.79
##  3       6.54       29.7           43.4             4.41             8.11
##  4       6.54       29.7           43.4             4.41             8.11
##  5       8.54       30.0           41.9             5.03             7.59
##  6       8.54       30.0           41.9             5.03             7.59
##  7       7.41       31.5           40.8             4.36             9.26
##  8       7.41       31.5           40.8             4.36             9.26
##  9       6.91       34.7           30.3             6.91            14.1 
## 10       6.91       34.7           30.3             6.91            14.1 
## # ... with 588 more rows, and 3 more variables: `FDP 2013` <dbl>, `NPD
## #   2013` <dbl>, east_west <chr>
…
